%YAML 1.1
%TAG !u! tag:unity3d.com,2011:
--- !u!21 &2100000
Material:
  serializedVersion: 6
  m_ObjectHideFlags: 0
  m_CorrespondingSourceObject: {fileID: 0}
  m_PrefabInternal: {fileID: 0}
  m_Name: Grass-13
  m_Shader: {fileID: 4800000, guid: 39f7fbd955669e64bbbf26e68547dd24, type: 3}
  m_ShaderKeywords: 
  m_LightmapFlags: 5
  m_EnableInstancingVariants: 0
  m_DoubleSidedGI: 0
  m_CustomRenderQueue: -1
  stringTagMap: {}
  disabledShaderPasses: []
  m_SavedProperties:
    serializedVersion: 3
    m_TexEnvs:
    - _BumpMap:
        m_Texture: {fileID: 0}
        m_Scale: {x: 1, y: 1}
        m_Offset: {x: 0, y: 0}
    - _BumpTex:
        m_Texture: {fileID: 2800000, guid: 473db526b53034a4985a090d27e98fe9, type: 3}
        m_Scale: {x: 1, y: 1}
        m_Offset: {x: 0, y: 0}
    - _ColorBAlbedo:
        m_Texture: {fileID: 2800000, guid: bbe4d95bb91ef9147947c1932148c9c4, type: 3}
        m_Scale: {x: 1, y: 1}
        m_Offset: {x: 0, y: 0}
    - _ColorBNormalMap:
        m_Texture: {fileID: 0}
        m_Scale: {x: 1, y: 1}
        m_Offset: {x: 0, y: 0}
    - _ColorMap:
        m_Texture: {fileID: 2800000, guid: 823e46f8d1ba0b34b992d4c8b9d6404b, type: 3}
        m_Scale: {x: 1, y: 1}
        m_Offset: {x: 0, y: 0}
    - _ColorRAlbedo:
        m_Texture: {fileID: 2800000, guid: 695bd669858f9be439ef59e0166b6d65, type: 3}
        m_Scale: {x: 1, y: 1}
        m_Offset: {x: 0, y: 0}
    - _ColorRNormalMap:
        m_Texture: {fileID: 0}
        m_Scale: {x: 1, y: 1}
        m_Offset: {x: 0, y: 0}
    - _Colormap:
        m_Texture: {fileID: 2800000, guid: 5612b69d275db3945b9632cf03dd7408, type: 3}
        m_Scale: {x: 1, y: 1}
        m_Offset: {x: 0, y: 0}
    - _CombinedNormal12:
        m_Texture: {fileID: 2800000, guid: a25d210c043787e4193b282e3f03726b, type: 3}
        m_Scale: {x: 1, y: 1}
        m_Offset: {x: 0, y: 0}
    - _CombinedNormal34:
        m_Texture: {fileID: 2800000, guid: a25d210c043787e4193b282e3f03726b, type: 3}
        m_Scale: {x: 1, y: 1}
        m_Offset: {x: 0, y: 0}
    - _CombinedNormal56:
        m_Texture: {fileID: 2800000, guid: a25d210c043787e4193b282e3f03726b, type: 3}
        m_Scale: {x: 1, y: 1}
        m_Offset: {x: 0, y: 0}
    - _Control:
        m_Texture: {fileID: 2800000, guid: e500f1261dc8bc04080d0d7a60b63254, type: 3}
        m_Scale: {x: 1, y: 1}
        m_Offset: {x: 0, y: 0}
    - _Control2nd:
        m_Texture: {fileID: 2800000, guid: e500f1261dc8bc04080d0d7a60b63254, type: 3}
        m_Scale: {x: 1, y: 1}
        m_Offset: {x: 0, y: 0}
    - _CustomColorMap:
        m_Texture: {fileID: 2800000, guid: 5612b69d275db3945b9632cf03dd7408, type: 3}
        m_Scale: {x: 1, y: 1}
        m_Offset: {x: 0, y: 0}
    - _DetailAlbedoMap:
        m_Texture: {fileID: 0}
        m_Scale: {x: 1, y: 1}
        m_Offset: {x: 0, y: 0}
    - _DetailMask:
        m_Texture: {fileID: 0}
        m_Scale: {x: 1, y: 1}
        m_Offset: {x: 0, y: 0}
    - _DetailNormalMap:
        m_Texture: {fileID: 0}
        m_Scale: {x: 1, y: 1}
        m_Offset: {x: 0, y: 0}
    - _EmissionMap:
        m_Texture: {fileID: 0}
        m_Scale: {x: 1, y: 1}
        m_Offset: {x: 0, y: 0}
    - _MainTex:
        m_Texture: {fileID: 2800000, guid: 5612b69d275db3945b9632cf03dd7408, type: 3}
        m_Scale: {x: 1.84, y: 1}
        m_Offset: {x: 0, y: 0}
    - _MainTex2:
        m_Texture: {fileID: 2800000, guid: ce5ab51b76fe45f48a4560b0bd48da25, type: 3}
        m_Scale: {x: 1, y: 1}
        m_Offset: {x: 0, y: 0}
    - _MetallicGlossMap:
        m_Texture: {fileID: 0}
        m_Scale: {x: 1, y: 1}
        m_Offset: {x: 0, y: 0}
    - _OcclusionMap:
        m_Texture: {fileID: 0}
        m_Scale: {x: 1, y: 1}
        m_Offset: {x: 0, y: 0}
    - _ParallaxMap:
        m_Texture: {fileID: 0}
        m_Scale: {x: 1, y: 1}
        m_Offset: {x: 0, y: 0}
    - _Ramp:
        m_Texture: {fileID: 2800000, guid: 07613e9faa018f24fbd364dc8452d61e, type: 3}
        m_Scale: {x: 0.62, y: 1}
        m_Offset: {x: 0, y: 0}
    - _SpecGlossMap:
        m_Texture: {fileID: 0}
        m_Scale: {x: 1, y: 1}
        m_Offset: {x: 0, y: 0}
    - _Splat0:
        m_Texture: {fileID: 2800000, guid: e500f1261dc8bc04080d0d7a60b63254, type: 3}
        m_Scale: {x: 1, y: 1}
        m_Offset: {x: 0, y: 0}
    - _Splat1:
        m_Texture: {fileID: 2800000, guid: cf96d2a2476874e4fa0c9f281881f4ba, type: 3}
        m_Scale: {x: 1, y: 1}
        m_Offset: {x: 0, y: 0}
    - _Splat2:
        m_Texture: {fileID: 2800000, guid: ef2386fc12cb48f45adb8210e7204d33, type: 3}
        m_Scale: {x: 1, y: 1}
        m_Offset: {x: 0, y: 0}
    - _Splat3:
        m_Texture: {fileID: 2800000, guid: f7bbc6a565b68a54f9a8f828055de5e9, type: 3}
        m_Scale: {x: 1, y: 1}
        m_Offset: {x: 0, y: 0}
    - _Splat4:
        m_Texture: {fileID: 2800000, guid: a25d210c043787e4193b282e3f03726b, type: 3}
        m_Scale: {x: 1, y: 1}
        m_Offset: {x: 0, y: 0}
    - _Splat5:
        m_Texture: {fileID: 2800000, guid: 66db9b89a7cc98448a5afd62a1b40a8c, type: 3}
        m_Scale: {x: 1, y: 1}
        m_Offset: {x: 0, y: 0}
    - _Splat6:
        m_Texture: {fileID: 2800000, guid: 4f4dc9e39fdfacc4eb6ed69a04d89d98, type: 3}
        m_Scale: {x: 1, y: 1}
        m_Offset: {x: 0, y: 0}
    - _Splat7:
        m_Texture: {fileID: 2800000, guid: 4f4dc9e39fdfacc4eb6ed69a04d89d98, type: 3}
        m_Scale: {x: 1, y: 1}
        m_Offset: {x: 0, y: 0}
    - _Splat8:
        m_Texture: {fileID: 2800000, guid: 4f4dc9e39fdfacc4eb6ed69a04d89d98, type: 3}
        m_Scale: {x: 1, y: 1}
        m_Offset: {x: 0, y: 0}
    - _TerrainCombinedNormal12:
        m_Texture: {fileID: 2800000, guid: bb02cd9010dcce544965302927d9a3df, type: 3}
        m_Scale: {x: 1, y: 1}
        m_Offset: {x: 0, y: 0}
    - _TerrainCombinedNormal34:
        m_Texture: {fileID: 2800000, guid: bb02cd9010dcce544965302927d9a3df, type: 3}
        m_Scale: {x: 1, y: 1}
        m_Offset: {x: 0, y: 0}
    - _TerrainNormalMap:
        m_Texture: {fileID: 2800000, guid: e500f1261dc8bc04080d0d7a60b63254, type: 3}
        m_Scale: {x: 1, y: 1}
        m_Offset: {x: 0, y: 0}
    - _TerrainSplat0:
        m_Texture: {fileID: 2800000, guid: 0fd5fc32bfd42be48bf87fc96a76a586, type: 3}
        m_Scale: {x: 1, y: 1}
        m_Offset: {x: 0, y: 0}
    - _TerrainSplat1:
        m_Texture: {fileID: 2800000, guid: ce5ab51b76fe45f48a4560b0bd48da25, type: 3}
        m_Scale: {x: 1, y: 1}
        m_Offset: {x: 0, y: 0}
    - _TerrainSplat2:
        m_Texture: {fileID: 2800000, guid: b766dd418b7055b49b3f8e5ccfab3e90, type: 3}
        m_Scale: {x: 1, y: 1}
        m_Offset: {x: 0, y: 0}
    - _TerrainSplat3:
        m_Texture: {fileID: 2800000, guid: 4f4dc9e39fdfacc4eb6ed69a04d89d98, type: 3}
        m_Scale: {x: 1, y: 1}
        m_Offset: {x: 0, y: 0}
    - _texcoord:
        m_Texture: {fileID: 0}
        m_Scale: {x: 1, y: 1}
        m_Offset: {x: 0, y: 0}
    m_Floats:
    - _Albedo: -0.5
    - _Albedo2: -0.321
    - _AlbedoM: 1.66
    - _AlbedoR: 0.49
    - _BumpScale: 1
    - _Cutoff: 0.5
    - _DetailNormalMapScale: 1
    - _DetailNormalStrength: 0.79
    - _DstBlend: 0
    - _Glossiness: 0.5
    - _IntensityA: 1
    - _IntensityC: 1
    - _Metallic: 0
    - _Mode: 0
    - _OcclusionStrength: 1
    - _Outline: 0.0022
    - _Parallax: 0.02
    - _Saturate: 1
    - _Splat0Tiling: 100
    - _Splat1Size: 48.77
    - _Splat1Tiling: 100
    - _Splat2Size: 71.1
    - _Splat2Tiling: 100
    - _Splat3Size: 68.4
    - _Splat3Tiling: 100
    - _Splat4Size: 74.9
    - _Splat4Tiling: 100
    - _Splat5Size: 50
    - _Splat5Tiling: 100
    - _Splat6Size: 50
    - _Splat7Size: 50
    - _Splat8Size: 50
    - _SrcBlend: 1
    - _Strength: 1
    - _TDesMultiUvFac: 0.5
    - _TDetailNormalStrength: 1
    - _TMultiUV: 6
    - _TSpecPower: 0
    - _TSplattingDistance: 600
    - _TUpscaledNormalStrength: 1
    - _TerrainSize: 2000
    - _TerrainTex1Size: 5
    - _TerrainTex2Size: 5
    - _TerrainTex3Size: 5
    - _TerrainTex4Size: 5
    - _UVSec: 0
    - _UpscaledNormalStrength: 1
    - _ZWrite: 1
    m_Colors:
    - _ColTex1: {r: 0.5, g: 0.5, b: 0.5, a: 1}
    - _ColTex2: {r: 0.5, g: 0.5, b: 0.5, a: 1}
    - _ColTex3: {r: 0.5, g: 0.5, b: 0.5, a: 1}
    - _ColTex4: {r: 0.5, g: 0.5, b: 0.5, a: 1}
    - _ColTex5: {r: 0.5, g: 0.5, b: 0.5, a: 1}
    - _ColTex6: {r: 0.5, g: 0.5, b: 0.5, a: 1}
    - _Color: {r: 0.7058823, g: 0.7058823, b: 0.7058823, a: 1}
    - _ColorA: {r: 0.678, g: 0.734, b: 0.722, a: 1}
    - _ColorB: {r: 0.9558824, g: 0.9558824, b: 0.9558824, a: 1}
    - _ColorC: {r: 0.935, g: 0.873, b: 0.879, a: 1}
    - _ColorR: {r: 0.86764705, g: 0.86764705, b: 0.86764705, a: 0.41960785}
    - _DecalCombinedFloats: {r: 0.5, g: 16, b: 0.5, a: 16}
    - _Elev: {r: 1, g: 1, b: 1, a: 1}
    - _Elev1: {r: 1, g: 1, b: 1, a: 1}
    - _EmissionColor: {r: 0, g: 0, b: 0, a: 1}
    - _OutlineColor: {r: 0.78676474, g: 0.78676474, b: 0.78676474, a: 1}
    - _Parallax: {r: 0.005, g: 0.005, b: 0, a: 0}
    - _Spec1: {r: 0.2, g: 0.2, b: 0.2, a: 1}
    - _Spec2: {r: 0.2, g: 0.2, b: 0.2, a: 1}
    - _Spec3: {r: 0.2, g: 0.2, b: 0.2, a: 1}
    - _Spec4: {r: 0.2, g: 0.2, b: 0.2, a: 1}
    - _Spec5: {r: 0.2, g: 0.2, b: 0.2, a: 1}
    - _Spec6: {r: 0.2, g: 0.2, b: 0.2, a: 1}
    - _SpecColor: {r: 0.9411765, g: 0.9411765, b: 0.9411765, a: 1}
    - _SpecElev1: {r: 0.85294116, g: 0.85294116, b: 0.85294116, a: 1}
    - _SpecElev2: {r: 0.8308824, g: 0.8308824, b: 0.8308824, a: 1}
    - _SpecElev3: {r: 0.60294116, g: 0.567474, b: 0.567474, a: 1}
    - _SpecElev4: {r: 0.71323526, g: 0.71323526, b: 0.71323526, a: 1}
    - _SpecElev5: {r: 0.2, g: 0.2, b: 0.2, a: 1}
    - _SpecElev6: {r: 0.2, g: 0.2, b: 0.2, a: 1}
    - _TDetailsFadeLength: {r: 100, g: 60, b: 20, a: 0.75}
    - _TParallax: {r: 0.005, g: 0.005, b: 0, a: 0}
    - _TerrainPos: {r: 0, g: 0, b: 0, a: 0}
    - _TerrainTex1Color: {r: 1, g: 1, b: 1, a: 1}
    - _TerrainTex2Color: {r: 1, g: 1, b: 1, a: 1}
    - _TerrainTex3Color: {r: 1, g: 1, b: 1, a: 1}
    - _TerrainTex4Color: {r: 1, g: 1, b: 1, a: 1}
    - _terrainCombinedFloats: {r: 0.5, g: 600, b: 0.5, a: 1}
    - _terrainDetailsFadeLenght: {r: 100, g: 60, b: 20, a: 0.75}
